﻿!mod$ v1 sum:938973b7add6bc81
module __fortran_builtins
intrinsic::__builtin_c_f_pointer
intrinsic::sizeof
intrinsic::selected_int_kind
private::selected_int_kind
integer(4),parameter,private::int64=8_4
type::__builtin_c_ptr
integer(8)::__address
end type
type::__builtin_c_funptr
integer(8)::__address
end type
type::__builtin_event_type
integer(8)::__count
end type
type::__builtin_lock_type
integer(8)::__count
end type
type::__builtin_team_type
integer(8)::__id
end type
procedure(type(__builtin_c_ptr))::__builtin_c_loc
intrinsic::__builtin_ieee_is_nan
intrinsic::__builtin_ieee_is_normal
intrinsic::__builtin_ieee_is_negative
intrinsic::__builtin_ieee_next_after
intrinsic::__builtin_ieee_next_down
intrinsic::__builtin_ieee_next_up
intrinsic::scale
intrinsic::__builtin_ieee_selected_real_kind
intrinsic::__builtin_ieee_support_datatype
intrinsic::__builtin_ieee_support_denormal
intrinsic::__builtin_ieee_support_divide
intrinsic::__builtin_ieee_support_inf
intrinsic::__builtin_ieee_support_io
intrinsic::__builtin_ieee_support_nan
intrinsic::__builtin_ieee_support_sqrt
intrinsic::__builtin_ieee_support_standard
intrinsic::__builtin_ieee_support_subnormal
intrinsic::__builtin_ieee_support_underflow_control
type,private::__force_derived_type_instantiations
type(__builtin_c_ptr)::c_ptr
type(__builtin_c_funptr)::c_funptr
type(__builtin_event_type)::event_type
type(__builtin_lock_type)::lock_type
type(__builtin_team_type)::team_type
end type
end
